^I:\.NET PROJECT\KEYGENERATOR\KEYGENERATOR\PROPERTIES\RESOURCES.RESX
C:\WINDOWS\MICROSOFT.NET\FRAMEWORK\V2.0.50727\CONFIG\SECURITY.CONFIG
C:\WINDOWS\MICROSOFT.NET\FRAMEWORK\V2.0.50727\CONFIG\ENTERPRISESEC.CONFIG
^I:\.NET PROJECT\KEYGENERATOR\KEYGENERATOR\MAINFORM.RESX
C:\WINDOWS\MICROSOFT.NET\FRAMEWORK\V2.0.50727\CONFIG\SECURITY.CONFIG
C:\WINDOWS\MICROSOFT.NET\FRAMEWORK\V2.0.50727\CONFIG\ENTERPRISESEC.CONFIG
