^I:\.NET PROJECT\KEYGENERATOR\KEYGENERATOR\MAINFORM.RESX|I:\.NET PROJECT\KEYGENERATOR\KEYGENERATOR\PROPERTIES\RESOURCES.RESX
I:\.NET PROJECT\KEYGENERATOR\KEYGENERATOR\OBJ\X86\RELEASE\KEYGENERATOR.MAINFORM.RESOURCES
I:\.NET PROJECT\KEYGENERATOR\KEYGENERATOR\OBJ\X86\RELEASE\KEYGENERATOR.PROPERTIES.RESOURCES.RESOURCES
